# This is an ADAPOS (v. 4.0.0) service file used for testing the ADAPRO library.
#
# The format of this file should be the following:
# <service-file> ::= <service-list>
# <service-list> ::= "" | <service-line> | <service-line> "\n" <service-list>
# <service-line> ::= <service-alias> <whitespace> <service-type>
# <service-type> ::= "Raw/" <payload-type> | "DPVAL/" <payload-type>
# <payload-type> ::= "Int" | "Uint" | "Float" | "Double" | "Bool" | "Char" | "String"
#                    | "Time" | "Binary"
# where <service-alias> is the alias of the service to be subscribed to, and
# <whitespace> consists of one or more spaces and/or tabs. Everything occuring
# to the right of a symbol '#' is ignored. Also, empty lines are ignored.

TST_136 Raw/Int
TST_137 Raw/Uint
TST_138 Raw/Double
TST_139 Raw/Bool
TST_140 Raw/Char
TST_141 Raw/String
TST_142 Raw/Time
TST_143 Raw/Binary
TST_144 DPVAL/Int
TST_145 DPVAL/Uint
TST_146 DPVAL/Double
TST_147 DPVAL/Bool
TST_148 DPVAL/Char
TST_149 DPVAL/String
TST_150 DPVAL/Time
TST_151 DPVAL/Binary
TST_153 Raw/Float
TST_154 DPVAL/Float
#TST_152 Void            # Void type is not intended for production.
